﻿Time stamp,AC 1 L1   (A),AC 1 L2   (A),AC 1 L3   (A)
2/10/2023 0:00,11.66,13.23,4.92
2/10/2023 1:00,8.75,10.76,4.36
2/10/2023 2:00,10.24,11.66,4.37
2/10/2023 3:00,10.01,11.36,4.23
2/10/2023 4:00,10.28,11.9,4.51
2/10/2023 5:00,11.38,12.39,4.61
2/10/2023 6:00,3.11,3.45,1.45
2/10/2023 7:00,2.9,3.15,1.34
2/10/2023 8:00,6.53,7.45,3.22
2/10/2023 9:00,6.96,7.66,3.55
2/10/2023 10:00,6.64,7.75,3.08
2/10/2023 11:00,6.97,8,3.4
2/10/2023 12:00,20.74,21.62,7.48
2/10/2023 13:00,14.47,15.69,5.65
2/10/2023 14:00,12.23,13.3,4.72
2/10/2023 15:00,11.96,13.11,4.77
2/10/2023 16:00,10.94,12.16,4.67
2/10/2023 17:00,8.65,10.4,4.06
2/10/2023 18:00,3.17,3.78,1.63
2/10/2023 19:00,0.842,1.05,0.431
2/10/2023 20:00,0.833,0.965,0.342
2/10/2023 21:00,0,0,0
2/10/2023 22:00,0.949,1.04,0.346
2/10/2023 23:00,0.758,0.842,0.343
2/11/2023 0:00,0.717,0.973,0.325
2/11/2023 1:00,1.57,1.75,0.735
2/11/2023 2:00,1.39,1.73,0.757
2/11/2023 3:00,2.54,3.17,1.43
2/11/2023 4:00,2.73,3.57,1.62
2/11/2023 5:00,3.03,3.58,1.4
2/11/2023 6:00,3.31,3.99,1.55
2/11/2023 7:00,4.86,6.14,2.4
2/11/2023 8:00,6.54,8.17,3.35
2/11/2023 9:00,6.81,8.51,3.5
2/11/2023 10:00,5.7,7.43,3.25
2/11/2023 11:00,4.71,6.04,2.73
2/11/2023 12:00,4.74,6.09,2.69
2/11/2023 13:00,3.59,4.59,2.07
2/11/2023 14:00,4.53,5.48,2.57
2/11/2023 15:00,3.08,3.91,1.86
2/11/2023 16:00,3.73,4.84,2.22
2/11/2023 17:00,0,0,0
2/11/2023 18:00,0,0,0
2/11/2023 19:00,0.599,0.707,0.26
2/11/2023 20:00,0.506,0.733,0.301
2/11/2023 21:00,2.19,2.86,1.16
2/11/2023 22:00,0.09,0.127,0.065
2/11/2023 23:00,2.64,3.49,1.49
2/12/2023 0:00,1.64,2.13,0.815
2/12/2023 1:00,2.59,3.51,1.49
2/12/2023 2:00,3.57,4.66,1.94
2/12/2023 3:00,1.69,2.13,0.832
2/12/2023 4:00,3.9,5.08,2.09
2/12/2023 5:00,3.45,4.79,2.18
2/12/2023 6:00,14.2,16.08,5.88
2/12/2023 7:00,10.03,12.06,4.5
2/12/2023 8:00,9.04,10.66,4.04
2/12/2023 9:00,10.14,11.97,4.56
2/12/2023 10:00,9.09,10.89,4.03
2/12/2023 11:00,7.54,9.83,3.9
2/12/2023 12:00,7.87,9.86,3.88
2/12/2023 13:00,6.07,8.05,3.58
2/12/2023 14:00,7.84,10.09,3.89
2/12/2023 15:00,7.26,8.6,3.49
2/12/2023 16:00,6.93,8.46,3.56
2/12/2023 17:00,5.88,7.36,3.25
2/12/2023 18:00,6.41,7.86,3.65
2/12/2023 19:00,6.5,8.68,4
2/12/2023 20:00,4.64,5.58,3.06
2/12/2023 21:00,6.9,8.62,3.99
2/12/2023 22:00,6.49,8.47,3.88
2/12/2023 23:00,6.19,8.23,3.75
2/13/2023 0:00,6.37,8.16,3.28
2/13/2023 1:00,6.99,8.84,3.82
2/13/2023 2:00,7.55,9.89,4.31
2/13/2023 3:00,7.23,9.91,4.08
2/13/2023 4:00,7.58,10.01,4.11
2/13/2023 5:00,7.03,9.46,4.29
2/13/2023 6:00,7.27,8.79,3.83
2/13/2023 7:00,6.75,9.11,4.03
2/13/2023 8:00,7.34,9.03,4.07
2/13/2023 9:00,8.6,9.42,4.19
2/13/2023 10:00,7.42,8.69,3.96
2/13/2023 11:00,7.03,8.4,3.77
2/13/2023 12:00,9.29,10.09,4.03
2/13/2023 13:00,6.77,7.43,3.23
2/13/2023 14:00,2.01,2.36,1.09
2/13/2023 15:00,4.17,4.78,2.15
2/13/2023 16:00,4.08,4.61,2.06
2/13/2023 17:00,1.9,2.19,1.03
2/13/2023 18:00,4.79,5.83,2.52
2/13/2023 19:00,5.62,6.65,3.14
2/13/2023 20:00,6.87,8.29,3.58
2/13/2023 21:00,7.12,8.3,3.61
2/13/2023 22:00,8.01,9.31,3.97
2/13/2023 23:00,10.54,11.89,4.6
2/14/2023 0:00,11.77,12.97,4.92
2/14/2023 1:00,12.14,13.58,5.14
2/14/2023 2:00,11.24,12.65,4.76
2/14/2023 3:00,12.37,13.88,5.28
2/14/2023 4:00,13.34,14.71,5.46
2/14/2023 5:00,13.44,14.65,5.47
2/14/2023 6:00,13.95,15.12,5.71
2/14/2023 7:00,14.14,15.02,5.64
2/14/2023 8:00,14.43,15.2,5.61
2/14/2023 9:00,14.73,15.04,5.55
2/14/2023 10:00,14.5,14.94,5.62
2/14/2023 11:00,13.43,14.1,5.42
2/14/2023 12:00,12.58,13.5,5.1
2/14/2023 13:00,8.66,9.77,4.17
2/14/2023 14:00,5.53,6.56,3.38
2/14/2023 15:00,4.57,5.44,2.42
2/14/2023 16:00,4.76,5.92,2.74
2/14/2023 17:00,4.61,5.32,2.36
2/14/2023 18:00,6.76,8.05,3.63
2/14/2023 19:00,6.51,7.78,3.14
2/14/2023 20:00,8.9,10.38,3.9
2/14/2023 21:00,7.76,9.84,4
2/14/2023 22:00,8.47,10.09,4
2/14/2023 23:00,8.89,10.25,4.13
2/15/2023 0:00,9.79,11.04,4.32
2/15/2023 1:00,11.71,12.88,4.88
2/15/2023 2:00,11.97,13.15,4.92
2/15/2023 3:00,12.6,13.73,5.15
2/15/2023 4:00,13.13,14.43,5.33
2/15/2023 5:00,13.48,14.71,5.41
2/15/2023 6:00,14.33,14.97,5.56
2/15/2023 7:00,14.54,14.98,5.56
2/15/2023 8:00,13.95,14.32,5.38
2/15/2023 9:00,12.39,13.34,5.13
2/15/2023 10:00,9.91,11.73,4.55
2/15/2023 11:00,7.77,9.56,3.74
2/15/2023 12:00,6,7.36,3.21
2/15/2023 13:00,5.57,6.5,2.89
2/15/2023 14:00,5.78,6.84,2.91
2/15/2023 15:00,5.27,6.35,2.74
2/15/2023 16:00,3.83,4.75,2.14
2/15/2023 17:00,0,0,0
2/15/2023 18:00,4.66,5.2,1.98
2/15/2023 19:00,8.09,9.73,3.94
2/15/2023 20:00,4.65,5.74,2.59
2/15/2023 21:00,6.66,8.39,3.41
2/15/2023 22:00,8.15,10,3.97
2/15/2023 23:00,7.92,9.7,3.86
2/16/2023 0:00,7.45,9.04,3.62
2/16/2023 1:00,7.4,9.88,4.14
2/16/2023 2:00,7.87,9.86,3.86
2/16/2023 3:00,7.55,10.02,4.03
2/16/2023 4:00,8.48,10.19,3.85
2/16/2023 5:00,6.45,8.47,3.65
2/16/2023 6:00,8.58,10.33,4.08
2/16/2023 7:00,7.63,9.49,4.06
2/16/2023 8:00,8.13,10.33,4.16
2/16/2023 9:00,6.36,7.79,3.58
2/16/2023 10:00,5.55,6.48,3.27
2/16/2023 11:00,4.37,5.44,2.81
2/16/2023 12:00,4.76,6.28,3.3
2/16/2023 13:00,3.29,4.26,2.28
2/16/2023 14:00,4.82,5.97,2.6
2/16/2023 15:00,4.57,5.74,2.77
2/16/2023 16:00,4.1,5.17,2.47
2/16/2023 17:00,1.94,2.33,1.12
2/16/2023 18:00,4.51,5.97,2.85
2/16/2023 19:00,2.96,3.79,1.9
2/16/2023 20:00,3.81,4.8,2.34
2/16/2023 21:00,4.17,5.25,2.79
2/16/2023 22:00,5.38,6.67,3.37
2/16/2023 23:00,5.65,7.16,3.37
2/17/2023 0:00,5.71,7.07,3.26
2/17/2023 1:00,4.9,6.19,2.93
2/17/2023 2:00,5.19,6.61,3.23
2/17/2023 3:00,4.94,6.25,2.94
2/17/2023 4:00,5.41,7.04,3.19
2/17/2023 5:00,5.07,6.42,2.91
2/17/2023 6:00,0.728,0.827,0.308
2/17/2023 7:00,0,0,0
2/17/2023 8:00,6.86,8.49,3.6
2/17/2023 9:00,5.59,6.72,3.45
2/17/2023 10:00,5.55,6.19,3.43
2/17/2023 11:00,5.79,6.84,3.15
2/17/2023 12:00,5.85,6.7,3.21
2/17/2023 13:00,5.91,7.07,3.54
2/17/2023 14:00,5.83,6.84,3.31
2/17/2023 15:00,5.94,6.87,3.22
2/17/2023 16:00,4.92,6.04,2.72
2/17/2023 17:00,0,0,0
2/17/2023 18:00,0,0,0
2/17/2023 19:00,0,0,0
2/17/2023 20:00,0,0,0
2/17/2023 21:00,0,0,0
2/17/2023 22:00,0,0,0
2/17/2023 23:00,0,0,0
2/18/2023 0:00,1.28,1.71,0.621
2/18/2023 1:00,0.613,0.693,0.289
2/18/2023 2:00,0,0,0
2/18/2023 3:00,0.612,0.683,0.279
2/18/2023 4:00,2.18,2.65,1.03
2/18/2023 5:00,2.45,3.03,1.3
2/18/2023 6:00,1.98,2.48,1.14
2/18/2023 7:00,1.32,1.85,0.838
2/18/2023 8:00,6.01,7.22,3.2
2/18/2023 9:00,3.78,4.53,2.37
2/18/2023 10:00,6.71,8.45,3.43
2/18/2023 11:00,4.59,5.8,2.44
2/18/2023 12:00,3.68,4.4,1.93
2/18/2023 13:00,4.57,5.87,2.95
2/18/2023 14:00,5.22,6.94,3.59
2/18/2023 15:00,4.09,5.43,2.64
2/18/2023 16:00,5.29,7.36,3.35
2/18/2023 17:00,0,0,0
2/18/2023 18:00,0,0,0
2/18/2023 19:00,0,0,0
2/18/2023 20:00,1.72,2.19,0.909
2/18/2023 21:00,0.919,1.08,0.471
2/18/2023 22:00,3.32,4.36,1.88
2/18/2023 23:00,0.289,0.353,0.193
2/19/2023 0:00,2.13,2.71,1.15
2/19/2023 1:00,0,0,0
2/19/2023 2:00,2.07,2.44,0.945
2/19/2023 3:00,2.51,3,1.14
2/19/2023 4:00,1.04,1.31,0.492
2/19/2023 5:00,2.4,2.82,1.03
2/19/2023 6:00,14.22,16.22,5.97
2/19/2023 7:00,9.01,10.6,4.01
2/19/2023 8:00,10.04,11.55,4.34
2/19/2023 9:00,7.68,9.03,3.48
2/19/2023 10:00,4.9,5.69,3.09
2/19/2023 11:00,4.89,5.91,2.66
2/19/2023 12:00,5.7,6.71,2.67
2/19/2023 13:00,3.36,4.17,1.94
2/19/2023 14:00,6.85,8.06,3.4
2/19/2023 15:00,6.72,8.26,3.53
2/19/2023 16:00,6.32,7.86,3.61
2/19/2023 17:00,4.02,4.96,2.41
2/19/2023 18:00,3.55,4.04,1.93
2/19/2023 19:00,5.52,6.52,3.24
2/19/2023 20:00,4.48,5.54,2.74
2/19/2023 21:00,6.79,7.86,3.62
2/19/2023 22:00,6.46,7.97,3.83
2/19/2023 23:00,6.82,8.18,3.71
2/20/2023 0:00,6.99,8.01,3.66
2/20/2023 1:00,7.22,9.13,4.18
2/20/2023 2:00,5.94,7.44,3.31
2/20/2023 3:00,5.33,6.53,3.15
2/20/2023 4:00,6.81,8.87,3.91
2/20/2023 5:00,6.33,7.88,3.32
2/20/2023 6:00,6.94,8.77,3.61
2/20/2023 7:00,6.61,7.72,3.23
2/20/2023 8:00,8.09,8.81,3.51
2/20/2023 9:00,5.39,6.21,2.81
2/20/2023 10:00,4.89,5.63,2.58
2/20/2023 11:00,5.88,6.81,3.09
2/20/2023 12:00,6.64,7.35,3.23
2/20/2023 13:00,6.07,6.93,3.35
2/20/2023 14:00,6.22,6.86,3.22
2/20/2023 15:00,5,5.37,2.44
2/20/2023 16:00,4.14,4.77,2.42
2/20/2023 17:00,2.1,2.5,1.14
2/20/2023 18:00,0,0,0
2/20/2023 19:00,2.73,3.68,1.57
2/20/2023 20:00,2.59,3.22,1.54
2/20/2023 21:00,5.52,6.83,2.9
2/20/2023 22:00,2.71,3.61,1.82
2/20/2023 23:00,2.95,3.97,1.82
2/21/2023 0:00,5.78,7.15,3.01
2/21/2023 1:00,5.17,6.49,2.74
2/21/2023 2:00,5.36,5.94,2.22
2/21/2023 3:00,6.21,7.45,3.24
2/21/2023 4:00,5.61,7.35,3.4
2/21/2023 5:00,6.15,7.66,3.49
2/21/2023 6:00,5.88,7.25,3.31
2/21/2023 7:00,5.93,7.41,3.4
2/21/2023 8:00,7.02,7.9,3.22
2/21/2023 9:00,7.8,8.48,3.62
2/21/2023 10:00,4.07,4.17,2.21
2/21/2023 11:00,4.49,4.86,2.18
2/21/2023 12:00,4.04,5.16,2.24
2/21/2023 13:00,6.86,8.51,3.43
2/21/2023 14:00,2.13,2.67,1.19
2/21/2023 15:00,2.7,3.1,1.34
2/21/2023 16:00,2.83,3.54,1.54
2/21/2023 17:00,1.97,2.27,0.95
2/21/2023 18:00,1.73,2.12,0.928
2/21/2023 19:00,4.23,4.98,2.08
2/21/2023 20:00,5.15,6.29,2.5
2/21/2023 21:00,7.37,8.41,3.57
2/21/2023 22:00,6.73,7.82,3.61
2/21/2023 23:00,7.48,8.75,3.64
2/22/2023 0:00,5.36,6.41,2.96
2/22/2023 1:00,6.13,8,3.89
2/22/2023 2:00,7.31,8.69,3.65
2/22/2023 3:00,7.59,8.81,3.53
2/22/2023 4:00,7.82,9.17,3.7
2/22/2023 5:00,7.89,9.14,3.64
2/22/2023 6:00,7.25,8.25,3.45
2/22/2023 7:00,7.48,9.12,3.79
2/22/2023 8:00,10.09,10.8,4.21
2/22/2023 9:00,7.04,8.06,3.64
2/22/2023 10:00,7.35,8.14,3.81
2/22/2023 11:00,7.41,8.52,3.56
2/22/2023 12:00,7.67,8.92,3.5
2/22/2023 13:00,4.77,5.35,2.22
2/22/2023 14:00,7.94,8.69,3.61
2/22/2023 15:00,5.66,6.44,2.83
2/22/2023 16:00,6.29,7.7,3.4
2/22/2023 17:00,5.54,6.8,3.27
2/22/2023 18:00,6.36,7.58,3.54
2/22/2023 19:00,5.9,7.4,3.46
2/22/2023 20:00,6.31,7.51,3.37
2/22/2023 21:00,6.51,7.98,3.71
2/22/2023 22:00,7.55,9.03,3.93
2/22/2023 23:00,6.34,7.89,3.35
2/23/2023 0:00,8.87,10.59,4.17
2/23/2023 1:00,8.29,10.6,4.34
2/23/2023 2:00,7.58,9.19,3.63
2/23/2023 3:00,8.3,10.05,3.91
2/23/2023 4:00,7.13,8.93,4.01
2/23/2023 5:00,7.88,10.63,4.5
2/23/2023 6:00,9.19,11.22,4.63
2/23/2023 7:00,7.79,9.46,4.21
2/23/2023 8:00,10.47,12.15,4.68
2/23/2023 9:00,8.95,9.94,3.89
2/23/2023 10:00,8.89,9.87,3.69
2/23/2023 11:00,6.79,7.82,3.17
2/23/2023 12:00,5.37,6.1,2.46
2/23/2023 13:00,4.26,4.83,1.97
2/23/2023 14:00,3.13,3.44,1.34
2/23/2023 15:00,3.44,3.67,1.48
2/23/2023 16:00,6.08,6.91,3.02
2/23/2023 17:00,3.03,3.29,1.35
2/23/2023 18:00,5.62,6.33,3.11
2/23/2023 19:00,7.69,8.85,3.82
2/23/2023 20:00,5.33,6.2,3.12
2/23/2023 21:00,8.94,10.18,4.42
2/23/2023 22:00,7.56,9.33,4.07
2/23/2023 23:00,8.42,10.14,4.13
2/24/2023 0:00,8.58,10.2,4.25
2/24/2023 1:00,8.09,9.99,4.32
2/24/2023 2:00,7.13,8.68,3.77
2/24/2023 3:00,7.82,9.63,4.15
2/24/2023 4:00,6.63,8.48,3.98
2/24/2023 5:00,7.66,10,4.3
2/24/2023 6:00,1.32,1.52,0.678
2/24/2023 7:00,1.4,1.52,0.63
2/24/2023 8:00,4.96,5.87,2.79
2/24/2023 9:00,4.45,5.17,2.58
2/24/2023 10:00,5.65,6.41,2.66
2/24/2023 11:00,4.47,5.18,2.27
2/24/2023 12:00,4.08,4.65,2.15
2/24/2023 13:00,4.34,4.93,2.25
2/24/2023 14:00,3.46,4.11,1.88
2/24/2023 15:00,2.68,2.97,1.27
2/24/2023 16:00,1.37,1.67,0.768
2/24/2023 17:00,1.2,1.3,0.532
2/24/2023 18:00,0,0,0
2/24/2023 19:00,1.08,1.19,0.474
2/24/2023 20:00,1.1,1.37,0.592
2/24/2023 21:00,1.32,1.66,0.688
2/24/2023 22:00,2.36,2.92,1.21
2/24/2023 23:00,6.09,7.23,3.01
2/25/2023 0:00,5.31,6.13,2.42
2/25/2023 1:00,6.46,7.58,3.15
2/25/2023 2:00,6.85,8.07,3.11
2/25/2023 3:00,7.6,9.09,3.7
2/25/2023 4:00,5.65,6.36,2.38
2/25/2023 5:00,7.65,9.08,3.56
2/25/2023 6:00,8.54,9.57,4
2/25/2023 7:00,7.95,8.89,3.52
2/25/2023 8:00,9.55,10.64,4.12
2/25/2023 9:00,9.52,11.03,4.67
2/25/2023 10:00,8.26,9.36,3.75
2/25/2023 11:00,7.34,8.79,3.56
2/25/2023 12:00,6.51,7.81,3.27
2/25/2023 13:00,6.89,8.19,3.41
2/25/2023 14:00,6.95,8.57,3.53
2/25/2023 15:00,6.95,8.46,3.54
2/25/2023 16:00,6.06,7.38,3.22
2/25/2023 17:00,6.23,7.42,3.21
2/25/2023 18:00,6.39,8.15,3.65
2/25/2023 19:00,5.49,7.2,3.33
2/25/2023 20:00,5.98,7.16,3.18
2/25/2023 21:00,7.84,9.34,3.8
2/25/2023 22:00,7.02,8.6,3.43
2/25/2023 23:00,7.23,9.64,3.93
2/26/2023 0:00,6.09,7.64,3.14
2/26/2023 1:00,9.59,11.01,4.13
2/26/2023 2:00,7.95,9.63,3.8
2/26/2023 3:00,8.02,9.88,4.05
2/26/2023 4:00,8.21,10.3,4.18
2/26/2023 5:00,8.89,10.54,3.97
2/26/2023 6:00,16.17,18.09,6.67
2/26/2023 7:00,15.59,17.5,6.3
2/26/2023 8:00,15.5,17.3,6.3
2/26/2023 9:00,15.22,16.99,6.18
2/26/2023 10:00,14.4,16.16,6.01
2/26/2023 11:00,10.04,12.09,4.92
2/26/2023 12:00,8.26,10.08,3.99
2/26/2023 13:00,7.39,9.4,4.04
2/26/2023 14:00,6.99,8.58,3.8
2/26/2023 15:00,7.4,8.85,3.59
2/26/2023 16:00,7.24,8.72,3.7
2/26/2023 17:00,7.66,8.75,3.64
2/26/2023 18:00,6.3,7.73,3.67
2/26/2023 19:00,8.22,9.8,3.98
2/26/2023 20:00,7.67,9.49,4
2/26/2023 21:00,8.16,10.4,4.21
2/26/2023 22:00,7.89,9.9,4.06
2/26/2023 23:00,8.36,9.56,3.73
2/27/2023 0:00,11.56,13.07,4.85
2/27/2023 1:00,10.35,12.03,4.5
2/27/2023 2:00,8.65,10.65,4.22
2/27/2023 3:00,10.48,11.69,4.45
2/27/2023 4:00,10.18,11.35,4.37
2/27/2023 5:00,11.17,12.13,4.6
2/27/2023 6:00,11.35,12.25,4.88
2/27/2023 7:00,12.53,13.71,5.22
2/27/2023 8:00,12.71,13.38,4.94
2/27/2023 9:00,11.6,11.98,4.64
2/27/2023 10:00,10.47,11.06,4.45
2/27/2023 11:00,9.67,10.28,4.09
2/27/2023 12:00,8.19,8.99,3.71
2/27/2023 13:00,7.7,8.46,3.87
2/27/2023 14:00,8.19,8.59,3.65
2/27/2023 15:00,6.98,7.32,3.24
2/27/2023 16:00,7.57,8.16,3.61
2/27/2023 17:00,5.02,5.53,2.57
2/27/2023 18:00,7.28,8.18,3.73
2/27/2023 19:00,7.78,8.86,3.78
2/27/2023 20:00,7.7,9.14,3.8
2/27/2023 21:00,8.12,9.58,4.15
2/27/2023 22:00,6.72,8.04,3.52
2/27/2023 23:00,8.45,9.71,3.91
2/28/2023 0:00,7.96,9.78,4.06
2/28/2023 1:00,9.08,10.5,4.36
2/28/2023 2:00,7.54,8.9,3.71
2/28/2023 3:00,7.79,9.11,3.77
2/28/2023 4:00,8.21,10.13,4.38
2/28/2023 5:00,9.1,10.39,4.14
2/28/2023 6:00,8.17,9.58,4.04
2/28/2023 7:00,8.65,9.9,3.91
2/28/2023 8:00,9.42,10.07,3.77
2/28/2023 9:00,9.54,10.12,3.96
2/28/2023 10:00,7.96,8.63,3.51
2/28/2023 11:00,6.76,7.34,3.03
2/28/2023 12:00,8,8.83,3.44
2/28/2023 13:00,5.38,6.33,3
2/28/2023 14:00,9.18,10.23,4.18
2/28/2023 15:00,6.29,6.85,3.14
2/28/2023 16:00,5.28,5.86,2.76
2/28/2023 17:00,0,0,0
2/28/2023 18:00,7.49,7.91,3.21
2/28/2023 19:00,9.04,9.8,4.33
2/28/2023 20:00,8.48,9.61,4.16
2/28/2023 21:00,7.31,8.6,4.05
2/28/2023 22:00,7.2,8.22,3.74
2/28/2023 23:00,8.26,9.43,4.06
3/1/2023 0:00,8.77,9.86,4.11
3/1/2023 1:00,8.52,9.91,4.11
3/1/2023 2:00,6.89,8.52,3.72
3/1/2023 3:00,8.87,10.14,4.22
3/1/2023 4:00,7.8,9.35,3.98
3/1/2023 5:00,7.52,9.39,4.03
3/1/2023 6:00,8.27,9.86,4.16
3/1/2023 7:00,8.03,9.51,3.94
3/1/2023 8:00,9.64,10.52,4.26
3/1/2023 9:00,9.67,10.35,4.02
3/1/2023 10:00,8.29,9.03,3.6
3/1/2023 11:00,6.03,6.66,3.28
3/1/2023 12:00,6.94,7.44,3.28
3/1/2023 13:00,5.59,6.21,2.94
3/1/2023 14:00,7.43,8.15,3.37
3/1/2023 15:00,4.98,5.56,2.71
3/1/2023 16:00,5.55,6.42,3.19
3/1/2023 17:00,3.74,4.38,2.18
3/1/2023 18:00,4.55,5.38,2.42
3/1/2023 19:00,7.34,8.36,3.48
3/1/2023 20:00,7.5,8.89,3.85
3/1/2023 21:00,7.02,8.8,4.16
3/1/2023 22:00,7.27,8.85,3.96
3/1/2023 23:00,6.55,8.36,3.84
3/2/2023 0:00,7.39,8.97,4.35
3/2/2023 1:00,7.28,8.63,4
3/2/2023 2:00,8.18,9.69,4.22
3/2/2023 3:00,7.36,9.4,4.29
3/2/2023 4:00,8.34,10.09,4.4
3/2/2023 5:00,7.13,8.74,4.14
3/2/2023 6:00,9.19,10.44,4.28
3/2/2023 7:00,8.29,9.21,3.74
3/2/2023 8:00,11.08,11.48,4.52
3/2/2023 9:00,8.89,9.2,3.78
3/2/2023 10:00,7.9,7.97,3.49
3/2/2023 11:00,9.19,9.46,3.88
3/2/2023 12:00,7.21,7.46,2.97
3/2/2023 13:00,8.58,9.06,3.85
3/2/2023 14:00,7.51,8.38,3.88
3/2/2023 15:00,6.61,7.38,3.56
3/2/2023 16:00,5.65,6.57,3.47
3/2/2023 17:00,5.21,5.94,3.04
3/2/2023 18:00,5.17,6.24,2.94
3/2/2023 19:00,6.85,8.06,3.75
3/2/2023 20:00,7.99,9.15,4.18
3/2/2023 21:00,7.1,8.3,4.1
3/2/2023 22:00,6.38,7.69,3.94
3/2/2023 23:00,8.38,10.2,4.64
3/3/2023 0:00,6.55,7.99,4.02
3/3/2023 1:00,9.88,11.24,4.91
3/3/2023 2:00,7.49,9.15,4.29
3/3/2023 3:00,7.32,8.97,4.23
3/3/2023 4:00,8.04,10.31,4.6
3/3/2023 5:00,8.22,10.32,4.57
3/3/2023 6:00,2.69,3.34,1.59
3/3/2023 7:00,2.66,3.03,1.25
3/3/2023 8:00,6.63,6.93,3.05
3/3/2023 9:00,5.67,5.74,2.72
3/3/2023 10:00,5.5,5.59,2.63
3/3/2023 11:00,6.73,6.82,2.75
3/3/2023 12:00,7.86,8.34,3.45
3/3/2023 13:00,5.05,5.44,2.45
3/3/2023 14:00,4.86,5.08,2.9
3/3/2023 15:00,7.29,8.06,3.55
3/3/2023 16:00,4.53,5.28,2.29
3/3/2023 17:00,1.4,1.67,0.818
3/3/2023 18:00,0,0,0
3/3/2023 19:00,0.565,0.635,0.27
3/3/2023 20:00,1.61,1.73,0.656
3/3/2023 21:00,2.57,3.01,1.26
3/3/2023 22:00,2.64,2.96,1.16
3/3/2023 23:00,4.79,5.5,2.29
3/4/2023 0:00,3.43,3.87,1.53
3/4/2023 1:00,4.74,5.38,2.24
3/4/2023 2:00,6.45,7.37,2.9
3/4/2023 3:00,4.56,5.1,1.93
3/4/2023 4:00,6.7,8.12,3.48
3/4/2023 5:00,5.6,6.68,2.7
3/4/2023 6:00,7.29,8.05,3.18
3/4/2023 7:00,8.2,9.04,3.43
3/4/2023 8:00,10.26,11.33,4.43
3/4/2023 9:00,8.08,9.3,3.85
3/4/2023 10:00,8.8,9.88,4.1
3/4/2023 11:00,6.48,7.28,3.49
3/4/2023 12:00,7.06,7.89,3.58
3/4/2023 13:00,7.29,8.55,3.8
3/4/2023 14:00,5.19,6.06,2.98
3/4/2023 15:00,6.66,7.44,3.32
3/4/2023 16:00,4.87,5.41,2.36
3/4/2023 17:00,4.89,5.55,2.41
3/4/2023 18:00,5.74,7.07,3.43
3/4/2023 19:00,3.69,4.58,2.18
3/4/2023 20:00,4.54,5.33,2.37
3/4/2023 21:00,5.97,6.85,3.08
3/4/2023 22:00,5.84,6.75,2.84
3/4/2023 23:00,6.2,7.73,3.35
3/5/2023 0:00,6.43,7.75,3.64
3/5/2023 1:00,5.8,7.24,3.44
3/5/2023 2:00,5.82,7.08,3.03
3/5/2023 3:00,8,9.35,3.71
3/5/2023 4:00,7.67,8.65,3.52
3/5/2023 5:00,7.74,8.35,3.32
3/5/2023 6:00,16.45,17.71,6.68
3/5/2023 7:00,13.24,14.42,5.44
3/5/2023 8:00,13.32,14.31,5.42
3/5/2023 9:00,13.01,14.01,5.38
3/5/2023 10:00,10.65,11.86,4.73
3/5/2023 11:00,12.02,12.82,4.96
3/5/2023 12:00,10.38,11.36,4.47
3/5/2023 13:00,16.76,18.23,7.31
3/5/2023 14:00,9.7,10.64,4.39
3/5/2023 15:00,8.47,9.86,4.2
3/5/2023 16:00,7.73,9.43,4.31
3/5/2023 17:00,7.07,8.29,4.09
3/5/2023 18:00,8.56,10.11,4.35
3/5/2023 19:00,8.78,10.2,4.33
3/5/2023 20:00,7.87,9.26,4.06
3/5/2023 21:00,8.76,10.38,4.58
3/5/2023 22:00,7.96,9.41,4.21
3/5/2023 23:00,12.42,13.43,5.4
3/6/2023 0:00,11.31,12.51,5.06
3/6/2023 1:00,13.88,15.15,5.9
3/6/2023 2:00,10.4,11.73,4.61
3/6/2023 3:00,10.7,12.08,4.77
3/6/2023 4:00,12.49,13.52,5.35
3/6/2023 5:00,11.45,12.72,5.06
3/6/2023 6:00,10.05,10.6,4.34
3/6/2023 7:00,10.2,10.45,4.29
3/6/2023 8:00,11.86,12.01,4.79
3/6/2023 9:00,10.12,10.54,4.32
3/6/2023 10:00,8.94,10.1,4.14
3/6/2023 11:00,7.75,8.71,3.61
3/6/2023 12:00,7.29,8.77,3.54
3/6/2023 13:00,7.64,8.46,3.57
3/6/2023 14:00,7.33,8.03,3.3
3/6/2023 15:00,8.39,8.82,3.33
3/6/2023 16:00,7.87,9.11,3.73
3/6/2023 17:00,6.34,7.55,3.53
3/6/2023 18:00,5.7,6.77,3.33
3/6/2023 19:00,7.77,9.21,4.01
3/6/2023 20:00,8.13,9.47,3.94
3/6/2023 21:00,6.75,8.23,3.68
3/6/2023 22:00,9.68,11.14,4.53
3/6/2023 23:00,7.81,9.78,4.39
3/7/2023 0:00,8.16,9.93,4.28
3/7/2023 1:00,9.98,11.5,4.56
3/7/2023 2:00,9.46,10.92,4.35
3/7/2023 3:00,9.6,10.88,4.39
3/7/2023 4:00,10.15,11.22,4.49
3/7/2023 5:00,12.43,13.52,5.18
3/7/2023 6:00,11.5,12.27,4.82
3/7/2023 7:00,11.92,12.26,4.87
3/7/2023 8:00,12.99,13.45,5.2
3/7/2023 9:00,9.62,10.24,4.06
3/7/2023 10:00,8.8,9.61,3.93
3/7/2023 11:00,6.94,7.72,3.26
3/7/2023 12:00,6.6,7.4,3.01
3/7/2023 13:00,7.6,8.22,3.42
3/7/2023 14:00,8.07,9.03,3.67
3/7/2023 15:00,5.97,6.53,3.12
3/7/2023 16:00,4.39,4.57,2.4
3/7/2023 17:00,0,0,0
3/7/2023 18:00,5.99,6.42,2.57
3/7/2023 19:00,9.44,10.83,4.38
3/7/2023 20:00,8.64,9.72,3.96
3/7/2023 21:00,13.07,14.58,5.54
3/7/2023 22:00,9.77,11.15,4.48
3/7/2023 23:00,10.29,11.68,4.99
3/8/2023 0:00,12.91,14.05,5.66
3/8/2023 1:00,12.85,14.11,5.76
3/8/2023 2:00,13.07,14.18,5.65
3/8/2023 3:00,12.87,14.09,5.77
3/8/2023 4:00,12.88,14.2,5.58
3/8/2023 5:00,13.21,14.22,5.72
3/8/2023 6:00,13.48,14.43,5.8
3/8/2023 7:00,13.72,15,5.62
3/8/2023 8:00,14.56,15.59,5.84
3/8/2023 9:00,14.44,15.39,5.83
3/8/2023 10:00,14.19,15.04,5.72
3/8/2023 11:00,12.01,12.69,4.98
3/8/2023 12:00,11.26,11.93,4.81
3/8/2023 13:00,11.99,12.6,5.04
3/8/2023 14:00,12.11,12.65,5.04
3/8/2023 15:00,13.18,13.91,5.4
3/8/2023 16:00,11.95,12.57,5.18
3/8/2023 17:00,10.24,11.1,4.65
3/8/2023 18:00,12.07,13.13,5.38
3/8/2023 19:00,11.85,12.64,5.08
3/8/2023 20:00,13.02,14.01,5.44
3/8/2023 21:00,13.41,14.75,5.77
3/8/2023 22:00,13.12,14.55,5.79
3/8/2023 23:00,13.66,14.94,5.98
3/9/2023 0:00,14.09,15.48,6.05
3/9/2023 1:00,14.13,15.44,6.15
3/9/2023 2:00,13.86,15.21,5.94
3/9/2023 3:00,13.94,15.13,5.92
3/9/2023 4:00,13.98,15.28,6.04
3/9/2023 5:00,14.09,15.21,5.92
3/9/2023 6:00,13.91,15.12,5.97
3/9/2023 7:00,14.05,15.09,5.93
3/9/2023 8:00,14.18,15.23,6
3/9/2023 9:00,13.76,14.47,5.72
3/9/2023 10:00,14.32,14.99,5.92
3/9/2023 11:00,14.49,14.94,5.8
3/9/2023 12:00,14.41,15.35,5.85
3/9/2023 13:00,14.52,15.31,6.02
3/9/2023 14:00,14.42,15.28,5.88
3/9/2023 15:00,14.45,15.17,5.77
3/9/2023 16:00,14.25,15.28,6.01
3/9/2023 17:00,14.15,15.3,5.96
3/9/2023 18:00,12.8,13.69,5.46
3/9/2023 19:00,14.33,14.92,5.78
3/9/2023 20:00,14.29,14.98,5.83
3/9/2023 21:00,14.13,15.31,5.89
3/9/2023 22:00,13.75,14.94,5.88
3/9/2023 23:00,13.7,15,5.86
3/10/2023 0:00,13.79,15.2,5.98
3/10/2023 1:00,13.8,15.09,5.97
3/10/2023 2:00,13.76,15,5.8
3/10/2023 3:00,13.41,14.75,5.64
3/10/2023 4:00,13.75,15.09,5.85
3/10/2023 5:00,13.8,14.7,5.53
3/10/2023 6:00,10.24,11.24,4.55
3/10/2023 7:00,11.23,12.27,4.78
3/10/2023 8:00,11.56,12.63,4.85
3/10/2023 9:00,10.88,11.67,4.59
3/10/2023 10:00,11.67,12.88,5
3/10/2023 11:00,11.29,12.35,4.84
3/10/2023 12:00,8.42,9.54,3.95
3/10/2023 13:00,8.68,9.86,4.25
3/10/2023 14:00,5.66,6.58,2.94
3/10/2023 15:00,3.01,3.44,1.45
3/10/2023 16:00,7.71,8.89,3.6
3/10/2023 17:00,1.78,1.97,0.82
3/10/2023 18:00,6.59,7.35,3.05
3/10/2023 19:00,5.92,6.57,2.71
3/10/2023 20:00,8.7,9.78,4.15
3/10/2023 21:00,8.19,9.21,3.93
3/10/2023 22:00,9.97,11.1,4.82
3/10/2023 23:00,9.39,10.55,4.66
