Time,Type,The Old Frizzle Pub (Wimbledon)  - Total  (kWh),,,,
Day,Non Trading,2695.85,0.2847,767.508495,,1038.82664
Day,Prep,607.6,0.2847,172.98372,,
Day,Trading,7850.02,0.2847,2234.900694,,2307.846504
Night,Closing,369,0.1715,63.2835,,
Night,Non Trading,1582.03,0.1715,271.318145,,
Night,Trading,425.34,0.1715,72.94581,,
,,,,,,
,,,,,,
,,,,,,
,,,,,,
,,,,,,
,,,,,,
,,,4277.88,,,
,,,8275.36,,,
